Commenly-used Script | Jiang Li, Ph.D.
…
Missing Values

R

# count missing by columns
colSums(is.na(df)) 

## dimension1 dimension2   measure1   measure2 
##        173        153        169        147

# drop rows with missing
na.omit(df) 

## # A tibble: 492 x 4
##    dimension1 dimension2 measure1 measure2
##    <chr>      <chr>         <int>    <int>
##  1 I          B                 9        9
##  2 II         C                10        5
##  3 II         B                 9        2
##  4 III        B                 6        2
##  5 II         B                 1        4
##  6 II         C                 6        8
##  7 I          B                 6        2
##  8 II         C                 6        9
##  9 III        B                 1       10
## 10 III        A                 3        1
## # ... with 482 more rows

# drop rows with all missing
df[rowSums(!is.na(df)) > 0, ] 

## # A tibble: 999 x 4
##    dimension1 dimension2 measure1 measure2
##    <chr>      <chr>         <int>    <int>
##  1 I          B                 9        9
##  2 II         C                10        5
##  3 II         B                 9        2
##  4 III        <NA>              5        4
##  5 <NA>       A                NA        9
##  6 III        A                 1       NA
##  7 III        B                 6        2
##  8 II         B                 1        4
##  9 II         C                 6        8
## 10 I          <NA>              5       10
## # ... with 989 more rows

# drop columns with all missing
df[colSums(!is.na(df)) > 0]

## # A tibble: 1,000 x 4
##    dimension1 dimension2 measure1 measure2
##    <chr>      <chr>         <int>    <int>
##  1 I          B                 9        9
##  2 II         C                10        5
##  3 II         B                 9        2
##  4 III        <NA>              5        4
##  5 <NA>       A                NA        9
##  6 III        A                 1       NA
##  7 III        B                 6        2
##  8 II         B                 1        4
##  9 II         C                 6        8
## 10 I          <NA>              5       10
## # ... with 990 more rows

# fill all missing by 0
df %>% replace(., is.na(.), 0)

## # A tibble: 1,000 x 4
##    dimension1 dimension2 measure1 measure2
##    <chr>      <chr>         <dbl>    <dbl>
##  1 I          B                 9        9
##  2 II         C                10        5
##  3 II         B                 9        2
##  4 III        0                 5        4
##  5 0          A                 0        9
##  6 III        A                 1        0
##  7 III        B                 6        2
##  8 II         B                 1        4
##  9 II         C                 6        8
## 10 I          0                 5       10
## # ... with 990 more rows

# fill missing by columns
df %>% replace_na(list(dimension1 = "Unknown", measure1 = 0)) 

## # A tibble: 1,000 x 4
##    dimension1 dimension2 measure1 measure2
##    <chr>      <chr>         <dbl>    <int>
##  1 I          B                 9        9
##  2 II         C                10        5
##  3 II         B                 9        2
##  4 III        <NA>              5        4
##  5 Unknown    A                 0        9
##  6 III        A                 1       NA
##  7 III        B                 6        2
##  8 II         B                 1        4
##  9 II         C                 6        8
## 10 I          <NA>              5       10
## # ... with 990 more rows
…
Unique

R

# unique row
df %>% distinct()

## # A tibble: 747 x 4
##    dimension1 dimension2 measure1 measure2
##    <chr>      <chr>         <int>    <int>
##  1 I          B                 9        9
##  2 II         C                10        5
##  3 II         B                 9        2
##  4 III        <NA>              5        4
##  5 <NA>       A                NA        9
##  6 III        A                 1       NA
##  7 III        B                 6        2
##  8 II         B                 1        4
##  9 II         C                 6        8
## 10 I          <NA>              5       10
## # ... with 737 more rows
…
left_join(df, df2,
  by = c(
    "dimension1" = "dimension3",
    "dimension2" = "dimension4"
  )
)

## # A tibble: 1,000 x 6
##    dimension1 dimension2 measure1 measure2 measure3 measure4
##    <chr>      <chr>         <int>    <int>    <int>    <int>
##  1 I          B                 9        9      326      323
##  2 II         C                10        5      311      346
##  3 II         B                 9        2      401      357
##  4 III        <NA>              5        4      193      227
##  5 <NA>       A                NA        9      258      222
##  6 III        A                 1       NA      417      376
##  7 III        B                 6        2      278      306
##  8 II         B                 1        4      401      357
##  9 II         C                 6        8      311      346
## 10 I          <NA>              5       10      176      197
## # ... with 990 more rows
…
